id,name,model_id:id,group_id:id,perm_read,perm_write,perm_create,perm_unlink
access_addsol_employee_education,Employee Education Officer,model_addsol_employee_education,base.group_hr_user,1,1,1,1
access_addsol_previous_employer_details,Previous Employer Details Officer,model_addsol_previous_employer_details,base.group_hr_user,1,1,1,1
access_addsol_employee_family_details,Employee Family Details Officer,model_addsol_employee_family_details,base.group_hr_user,1,1,1,1
access_addsol_employee_education user,Employee Education ,model_addsol_employee_education,base.group_user,1,0,0,0
access_addsol_previous_employer_details user,Previous Employer Details,model_addsol_previous_employer_details,base.group_user,1,0,0,0
access_addsol_employee_family_details user,Employee Family Details Officer,model_addsol_employee_family_details,base.group_user,1,0,0,0
