id,name,model_id:id,group_id:id,perm_read,perm_write,perm_create,perm_unlink
access_top_product_report,top_product_report,model_top_product_report,base.group_sale_manager,1,0,0,0
access_addsol_outstanding_amount_report,addsol_outstanding_amount_report,model_addsol_outstanding_amount_report,base.group_sale_manager,1,0,0,0
access_addsol_party_ledger_report,addsol_party_ledger_report,model_party_ledger_report,base.group_sale_manager,1,0,0,0
access_addsol_goals_vs_actuals_report,addsol_goals_vs_actuals_report,model_goals_vs_actuals_report,base.group_sale_manager,1,0,0,0
access_addsol_profitability_report,addsol_profitability_report,model_profitability_report,base.group_sale_manager,1,0,0,0
access_addsol_moa_invoice_report,addsol_moa_invoice_report,model_moa_invoice_report,base.group_sale_manager,1,0,0,0
access_addsol_sales_register_report,addsol_sales_register_report,model_addsol_sales_register_report,base.group_sale_manager,1,0,0,0